Project 1
…
#returns the lowest to greatest level of poverty for Republican states
merged%>%select(State, `Political Party`, `Poverty Percent, All Ages`) %>% filter(`Political Party`=="Republican") %>%arrange(`Poverty Percent, All Ages`)

## # A tibble: 26 x 3
##    State         `Political Party` `Poverty Percent, All Ages`
##    <chr>         <chr>                                   <dbl>
##  1 New Hampshire Republican                                7.6
##  2 Maryland      Republican                                9.1
##  3 Utah          Republican                                9.1
##  4 Massachusetts Republican                               10  
##  5 North Dakota  Republican                               10.6
##  6 Vermont       Republican                               10.7
##  7 Wyoming       Republican                               10.7
##  8 Nebraska      Republican                               11  
##  9 Alaska        Republican                               11.1
## 10 Iowa          Republican                               11.2
## # … with 16 more rows

#returns the lowest to greatest level of poverty for Democrat states
merged%>%select(State, `Political Party`, `Poverty Percent, All Ages`) %>% filter(`Political Party`=="Democrat") %>%arrange(`Poverty Percent, All Ages`)

## # A tibble: 24 x 3
##    State       `Political Party` `Poverty Percent, All Ages`
##    <chr>       <chr>                                   <dbl>
##  1 Hawaii      Democrat                                  9  
##  2 New Jersey  Democrat                                  9.5
##  3 Minnesota   Democrat                                  9.6
##  4 Colorado    Democrat                                  9.7
##  5 Connecticut Democrat                                 10.3
##  6 Washington  Democrat                                 10.3
##  7 Virginia    Democrat                                 10.7
##  8 Wisconsin   Democrat                                 11.1
##  9 Maine       Democrat                                 11.6
## 10 Kansas      Democrat                                 11.9
## # … with 14 more rows

#returns the lowest levels to highest levels of arrests for each crime in the US states
merged_untidy%>%filter(Type=="Murder")%>%arrange(Arrests)

## # A tibble: 50 x 5
##    State         `Poverty Percent, All Ages` `Political Party` Type   Arrests
##    <chr>                               <dbl> <chr>             <chr>    <dbl>
##  1 North Dakota                         10.6 Republican        Murder     0.8
##  2 Maine                                11.6 Democrat          Murder     2.1
##  3 New Hampshire                         7.6 Republican        Murder     2.1
##  4 Iowa                                 11.2 Republican        Murder     2.2
##  5 Vermont                              10.7 Republican        Murder     2.2
##  6 Idaho                                11.7 Republican        Murder     2.6
##  7 Wisconsin                            11.1 Democrat          Murder     2.6
##  8 Minnesota                             9.6 Democrat          Murder     2.7
##  9 Utah                                  9.1 Republican        Murder     3.2
## 10 Connecticut                          10.3 Democrat          Murder     3.3
## # … with 40 more rows

merged%>%arrange(Murder)

## # A tibble: 50 x 6
##    State        Murder Assault  Rape `Poverty Percent, All Age… `Political Part…
##    <chr>         <dbl>   <dbl> <dbl>                      <dbl> <chr>           
##  1 North Dakota    0.8      45   7.3                       10.6 Republican      
##  2 Maine           2.1      83   7.8                       11.6 Democrat        
##  3 New Hampshi…    2.1      57   9.5                        7.6 Republican      
##  4 Iowa            2.2      56  11.3                       11.2 Republican      
##  5 Vermont         2.2      48  11.2                       10.7 Republican      
##  6 Idaho           2.6     120  14.2                       11.7 Republican      
##  7 Wisconsin       2.6      53  10.8                       11.1 Democrat        
##  8 Minnesota       2.7      72  14.9                        9.6 Democrat        
##  9 Utah            3.2     120  22.9                        9.1 Republican      
## 10 Connecticut     3.3     110  11.1                       10.3 Democrat        
## # … with 40 more rows

merged_untidy%>%filter(Type=="Assault")%>%arrange(Arrests)

## # A tibble: 50 x 5
##    State         `Poverty Percent, All Ages` `Political Party` Type    Arrests
##    <chr>                               <dbl> <chr>             <chr>     <dbl>
##  1 North Dakota                         10.6 Republican        Assault      45
##  2 Hawaii                                9   Democrat          Assault      46
##  3 Vermont                              10.7 Republican        Assault      48
##  4 Wisconsin                            11.1 Democrat          Assault      53
##  5 Iowa                                 11.2 Republican        Assault      56
##  6 New Hampshire                         7.6 Republican        Assault      57
##  7 Minnesota                             9.6 Democrat          Assault      72
##  8 West Virginia                        17.4 Republican        Assault      81
##  9 Maine                                11.6 Democrat          Assault      83
## 10 South Dakota                         12.9 Republican        Assault      86
## # … with 40 more rows

merged%>%arrange(Assault)

## # A tibble: 50 x 6
##    State        Murder Assault  Rape `Poverty Percent, All Age… `Political Part…
##    <chr>         <dbl>   <dbl> <dbl>                      <dbl> <chr>           
##  1 North Dakota    0.8      45   7.3                       10.6 Republican      
##  2 Hawaii          5.3      46  20.2                        9   Democrat        
##  3 Vermont         2.2      48  11.2                       10.7 Republican      
##  4 Wisconsin       2.6      53  10.8                       11.1 Democrat        
##  5 Iowa            2.2      56  11.3                       11.2 Republican      
##  6 New Hampshi…    2.1      57   9.5                        7.6 Republican      
##  7 Minnesota       2.7      72  14.9                        9.6 Democrat        
##  8 West Virgin…    5.7      81   9.3                       17.4 Republican      
##  9 Maine           2.1      83   7.8                       11.6 Democrat        
## 10 South Dakota    3.8      86  12.8                       12.9 Republican      
## # … with 40 more rows

merged_untidy%>%filter(Type=="Rape")%>%arrange(Arrests)

## # A tibble: 50 x 5
##    State         `Poverty Percent, All Ages` `Political Party` Type  Arrests
##    <chr>                               <dbl> <chr>             <chr>   <dbl>
##  1 North Dakota                         10.6 Republican        Rape      7.3
##  2 Maine                                11.6 Democrat          Rape      7.8
##  3 Rhode Island                         12.8 Democrat          Rape      8.3
##  4 West Virginia                        17.4 Republican        Rape      9.3
##  5 New Hampshire                         7.6 Republican        Rape      9.5
##  6 Wisconsin                            11.1 Democrat          Rape     10.8
##  7 Connecticut                          10.3 Democrat          Rape     11.1
##  8 Vermont                              10.7 Republican        Rape     11.2
##  9 Iowa                                 11.2 Republican        Rape     11.3
## 10 South Dakota                         12.9 Republican        Rape     12.8
## # … with 40 more rows

merged%>%arrange(Rape)

## # A tibble: 50 x 6
##    State        Murder Assault  Rape `Poverty Percent, All Age… `Political Part…
##    <chr>         <dbl>   <dbl> <dbl>                      <dbl> <chr>           
##  1 North Dakota    0.8      45   7.3                       10.6 Republican      
##  2 Maine           2.1      83   7.8                       11.6 Democrat        
##  3 Rhode Island    3.4     174   8.3                       12.8 Democrat        
##  4 West Virgin…    5.7      81   9.3                       17.4 Republican      
##  5 New Hampshi…    2.1      57   9.5                        7.6 Republican      
##  6 Wisconsin       2.6      53  10.8                       11.1 Democrat        
##  7 Connecticut     3.3     110  11.1                       10.3 Democrat        
##  8 Vermont         2.2      48  11.2                       10.7 Republican      
##  9 Iowa            2.2      56  11.3                       11.2 Republican      
## 10 South Dakota    3.8      86  12.8                       12.9 Republican      
## # … with 40 more rows
…
#summary stats over total poverty levels and total arrests for murder, assault, and rape in the US
merged%>%summarize(mean_murder=mean(Murder), sd_murder=sd(Murder), var_murder=var(Murder), mean_assault=mean(Assault), sd_assault=sd(Assault), var_assault=var(Assault), mean_rape=mean(Rape), sd_rape=sd(Rape), var_rape=var(Rape), mean_poverty=mean(`Poverty Percent, All Ages`), sd_poverty=sd(`Poverty Percent, All Ages`), var_poverty=var(`Poverty Percent, All Ages`))

## # A tibble: 1 x 12
##   mean_murder sd_murder var_murder mean_assault sd_assault var_assault mean_rape
##         <dbl>     <dbl>      <dbl>        <dbl>      <dbl>       <dbl>     <dbl>
## 1        7.79      4.36       19.0         171.       83.3       6945.      21.2
## # … with 5 more variables: sd_rape <dbl>, var_rape <dbl>, mean_poverty <dbl>,
## #   sd_poverty <dbl>, var_poverty <dbl>

#shows only Republican states, the mean arrests (for rape, murder, assault) for each state
meanRepub<-merged_untidy%>%filter(`Political Party`=="Republican")%>%group_by(State, `Political Party`)%>%summarize(mean_crime=mean(Arrests))
meanRepub

## # A tibble: 26 x 3
## # Groups:   State [26]
##    State    `Political Party` mean_crime
##    <chr>    <chr>                  <dbl>
##  1 Alabama  Republican              90.1
##  2 Alaska   Republican             106. 
##  3 Arizona  Republican             111. 
##  4 Arkansas Republican              72.8
##  5 Florida  Republican             127. 
##  6 Georgia  Republican              84.7
##  7 Idaho    Republican              45.6
##  8 Indiana  Republican              47.1
##  9 Iowa     Republican              23.2
## 10 Maryland Republican             113. 
## # … with 16 more rows

#shows only Democratic states, the mean arrests (for rape, murder, assault) for each state,
meanDemo<-merged_untidy%>%filter(`Political Party`=="Democrat")%>%group_by(State, `Political Party`)%>%summarize(mean_crime=mean(Arrests))
meanDemo

## # A tibble: 24 x 3
## # Groups:   State [24]
##    State       `Political Party` mean_crime
##    <chr>       <chr>                  <dbl>
##  1 California  Democrat               109. 
##  2 Colorado    Democrat                83.5
##  3 Connecticut Democrat                41.5
##  4 Delaware    Democrat                86.6
##  5 Hawaii      Democrat                23.8
##  6 Illinois    Democrat                94.5
##  7 Kansas      Democrat                46.3
##  8 Kentucky    Democrat                45  
##  9 Louisiana   Democrat                95.5
## 10 Maine       Democrat                31.0
## # … with 14 more rows
…
